2. Data structure & cleaning – Computational Social Science Textbook
…
Note

In this practice question, I will demonstrate how to clean and work with datasets from the HDSinRdata package. HDSinRdata package includes ten datasets used in the chapters and exercises of Paul, Alice (2023) “Health Data Science in R” https://alicepaul.github.io/health-data-science-using-r/.

After we call the HDSinRdata package, we will use ‘covidcases’ and ‘mobility’ data from the package.

#install.packages("HDSinRdata")
library(HDSinRdata) 
?HDSinRdata
data(covidcases) 
?covidcases
print(covidcases) # Showcase the full dataset

# A tibble: 69,530 × 5
   state         county         week weekly_cases weekly_deaths
   <chr>         <chr>         <dbl>        <int>         <int>
 1 California    Marin             9            1             0
 2 California    Orange            9            3             0
 3 Florida       Manatee           9            1             0
 4 California    Napa              9            1             0
 5 New Hampshire Grafton           9            2             0
 6 Washington    Spokane           9            4             0
 7 California    San Francisco     9            3             0
 8 California    Placer            9            2             0
 9 Massachusetts Norfolk           9            1             0
10 Arizona       Maricopa          9            2             0
# ℹ 69,520 more rows

data(mobility)
?mobility
print(mobility)

# A tibble: 9,333 × 5
# Groups:   state [51]
   state   date       samples   m50 m50_index
   <chr>   <chr>        <int> <dbl>     <dbl>
 1 Alabama 2020-03-01  267652  10.9      76.9
 2 Alabama 2020-03-02  287264  14.3      98.6
 3 Alabama 2020-03-03  292018  14.2      98.2
 4 Alabama 2020-03-04  298704  13.1      89.7
 5 Alabama 2020-03-05  288218  14.8     102. 
 6 Alabama 2020-03-06  282982  17.9     126. 
 7 Alabama 2020-03-07  282326  16.3     114. 
 8 Alabama 2020-03-08  276150  10.9      77.0
 9 Alabama 2020-03-09  290074  14.7     102. 
10 Alabama 2020-03-10  286780  14.4     100. 
# ℹ 9,323 more rows
…
Filter rows where the ‘state’ column is ‘Hawaii’ You could directly filter it or create a new dataframe with the filtered rows (recommended)

# Directly filter
covidcases |> 
  filter(state == "Hawaii")

# A tibble: 101 × 5
   state  county    week weekly_cases weekly_deaths
   <chr>  <chr>    <dbl>        <int>         <int>
 1 Hawaii Honolulu    10            2             0
 2 Hawaii Maui        11            3             0
 3 Hawaii Hawaii      11            1             0
 4 Hawaii Honolulu    11            6             0
 5 Hawaii Kauai       11            2             0
 6 Hawaii Maui        12            8             0
 7 Hawaii Hawaii      12            4             0
 8 Hawaii Honolulu    12           50             0
 9 Hawaii Kauai       12            1             0
10 Hawaii Maui        13           14             0
# ℹ 91 more rows

## Create a new dataframe
hawaii_covidcases <- covidcases |>
  filter(state == "Hawaii")
print(hawaii_covidcases)

# A tibble: 101 × 5
   state  county    week weekly_cases weekly_deaths
   <chr>  <chr>    <dbl>        <int>         <int>
 1 Hawaii Honolulu    10            2             0
 2 Hawaii Maui        11            3             0
 3 Hawaii Hawaii      11            1             0
 4 Hawaii Honolulu    11            6             0
 5 Hawaii Kauai       11            2             0
 6 Hawaii Maui        12            8             0
 7 Hawaii Hawaii      12            4             0
 8 Hawaii Honolulu    12           50             0
 9 Hawaii Kauai       12            1             0
10 Hawaii Maui        13           14             0
# ℹ 91 more rows

hawaii_mobility <- mobility |>
  filter(state == "Hawaii")
print(hawaii_mobility)

# A tibble: 183 × 5
# Groups:   state [1]
   state  date       samples   m50 m50_index
   <chr>  <chr>        <int> <dbl>     <dbl>
 1 Hawaii 2020-03-01   39890  4.51      65.8
 2 Hawaii 2020-03-02   41752  6.79      96.4
 3 Hawaii 2020-03-03   42302  6.83      96.8
 4 Hawaii 2020-03-04   42816  6.96      99.4
 5 Hawaii 2020-03-05   41588  7.29     104. 
 6 Hawaii 2020-03-06   41422  7.55     108. 
 7 Hawaii 2020-03-07   41826  6.59      94.8
 8 Hawaii 2020-03-08   42150  5.24      76.6
 9 Hawaii 2020-03-09   43274  6.92      99.2
10 Hawaii 2020-03-10   43050  7.45     106. 
# ℹ 173 more rows
…
