8. Network analysis – Computational Social Science Textbook
…
popular_users <- user_counts %>%
  slice_max(order_by = n, n = 30, with_ties = FALSE)

popular_users

# A tibble: 30 × 2
   user                    n
   <chr>               <int>
 1 88215673              797
 2 1467931973616386052   556
 3 50434933              320
 4 4099171               168
 5 1541493458543775747   162
 6 288277167             134
 7 137472360              97
 8 1014756915094515713    95
 9 1375165814             89
10 1574645533054046209    84
# ℹ 20 more rows
…
