9. Predictive analysis – Computational Social Science Textbook
…
                  RMSE
                  2.44

Part 4: Practice Example with COVID-19 Cases and Mobility

In this example, we use the covidcases and mobility datasets from the HDSinRdata package.

data(covidcases)
data(mobility)

print(covidcases)

# A tibble: 69,530 × 5
   state         county         week weekly_cases weekly_deaths
   <chr>         <chr>         <dbl>        <int>         <int>
 1 California    Marin             9            1             0
 2 California    Orange            9            3             0
 3 Florida       Manatee           9            1             0
 4 California    Napa              9            1             0
 5 New Hampshire Grafton           9            2             0
 6 Washington    Spokane           9            4             0
 7 California    San Francisco     9            3             0
 8 California    Placer            9            2             0
 9 Massachusetts Norfolk           9            1             0
10 Arizona       Maricopa          9            2             0
# ℹ 69,520 more rows

print(mobility)

# A tibble: 9,333 × 5
# Groups:   state [51]
   state   date       samples   m50 m50_index
   <chr>   <chr>        <int> <dbl>     <dbl>
 1 Alabama 2020-03-01  267652  10.9      76.9
 2 Alabama 2020-03-02  287264  14.3      98.6
 3 Alabama 2020-03-03  292018  14.2      98.2
 4 Alabama 2020-03-04  298704  13.1      89.7
 5 Alabama 2020-03-05  288218  14.8     102. 
 6 Alabama 2020-03-06  282982  17.9     126. 
 7 Alabama 2020-03-07  282326  16.3     114. 
 8 Alabama 2020-03-08  276150  10.9      77.0
 9 Alabama 2020-03-09  290074  14.7     102. 
10 Alabama 2020-03-10  286780  14.4     100. 
# ℹ 9,323 more rows
…
This gives a quick overview of average mobility and total cases by state.

state_m50 <- merged_data %>%
  group_by(state) %>%
  summarise(
    mean_m50 = mean(m50, na.rm = TRUE),
    median_m50 = median(m50, na.rm = TRUE),
    cases_total = sum(weekly_cases, na.rm = TRUE),
    .groups = "drop"
  )

print(state_m50)

# A tibble: 51 × 4
   state       mean_m50 median_m50 cases_total
   <chr>          <dbl>      <dbl>       <int>
 1 Alabama         7.84       8.77      127616
 2 Alaska          2.12       2.45        6072
 3 Arizona         4.08       4.40      202373
 4 Arkansas        7.12       7.85       60600
 5 California      2.24       2.17      716585
 6 Colorado        5.12       5.83       58118
 7 Connecticut     3.07       2.93       52899
 8 Delaware        3.89       4.11       17246
 9 Florida         4.61       5.14      630002
10 Georgia         6.49       7.41      254062
# ℹ 41 more rows
…
