6. Topic modeling – Computational Social Science Textbook
…
topics_long <- theta_scores %>%
  pivot_longer(cols = V1:V7,
               names_to = "topic",
              values_to = "theta")

Extract top thetas

Here, we use by group_by() and treat the ‘doc_id’ column as an unique ID of each row. We use slice_max() to select the highest theta value per document

toptopics <- topics_long %>%
  group_by(doc_id) %>% 
  slice_max(theta) 
toptopics

# A tibble: 1,749 × 3
# Groups:   doc_id [1,748]
   doc_id topic theta
    <dbl> <chr> <dbl>
 1      2 V6    0.735
 2      5 V1    0.524
 3      9 V5    0.524
 4     12 V1    0.472
 5     31 V6    0.563
 6     33 V2    0.423
 7     44 V4    0.697
 8     45 V6    0.594
 9     46 V2    0.592
10     48 V3    0.487
# ℹ 1,739 more rows
…
